module github.com/AJGherardi/ManageBot

go 1.15

require (
	github.com/bwmarrin/discordgo v0.23.1
	github.com/clinet/discordgo-embed v0.0.0-20190411043415-d754bc1a576c
	github.com/gorilla/websocket v1.4.2 // indirect
	golang.org/x/crypto v0.0.0-20201221181555-eec23a3978ad // indirect
	golang.org/x/sys v0.0.0-20210124154548-22da62e12c0c // indirect
)

replace github.com/bwmarrin/discordgo => github.com/FedorLap2006/discordgo v0.22.1-0.20210117175520-9c6bf001db7e
